PhyloMeth: Getting Trees and Data
…
name_suggest(q='Viola pubescens')

## # A tibble: 22 x 3
##        key canonicalName                  rank   
##  *   <int> <chr>                          <chr>  
##  1 5331338 Viola pubescens                SPECIES
##  2 9077732 Viola pubescens scabriuscula   FORM   
##  3 5664646 Viola pubescens achlydophylla  FORM   
##  4 5664628 Viola pubescens eriocarpa      VARIETY
##  5 5664610 Viola pubescens glabriuscula   VARIETY
##  6 5664569 Viola pubescens scabriuscula   VARIETY
##  7 8852854 Viola pubescens scabriuscula   FORM   
##  8 5664564 Viola pubescens typica         VARIETY
##  9 6711811 Viola pubescens brevistipulata VARIETY
## 10 5708737 Viola pubescens leiocarpon     VARIETY
## #  with 12 more rows

#two non-CL species:
name_suggest(q='Viola pedata')

## # A tibble: 24 x 3
##        key canonicalName               rank   
##  *   <int> <chr>                       <chr>  
##  1 5331278 Viola pedata                SPECIES
##  2 8619549 Viola pedata concolor       VARIETY
##  3 7414748 Viola pedata bicolor        FORM   
##  4 7942672 Viola pedata lineariloba    FORM   
##  5 5663588 Viola pedata alba           FORM   
##  6 8209010 Viola pedata alba           VARIETY
##  7 8367871 Viola pedata rosea          FORM   
##  8 5331280 Viola pedata ranunculifolia VARIETY
##  9 5663553 Viola pedata inornata       VARIETY
## 10 5663579 Viola pedata bicolor        VARIETY
## #  with 14 more rows
…
